Tipus,Velocitat,Longitud,Latitud
Fixa,100,2.51603,42.19298
Fixa,100,2.59118,42.21738
Fixa,100,2.6482,42.2157
Camuflat,100,2.20054,42.1556
Camuflat,100,2.3969,41.88059
Camuflat,100,2.45662,41.84924
Camuflat,100,2.76963,41.78393
Camuflat,100,2.77515,41.89716
Camuflat,100,2.89679,41.81207
Camuflat,100,2.9478,41.8269
Camuflat,100,3.0059,41.80849
Camuflat,100,3.10232,41.86041
Camuflat,100,3.14534,41.8991
Camuflat,100,2.58347,42.21923
Camuflat,100,2.6697,42.21071
Camuflat,100,2.68747,42.20601
Camuflat,100,3.02536,42.26774
Fixa,90,2.81275,42.06637
Fixa,90,2.81332,42.06672
Fixa,90,2.83712,41.80182
Fixa,90,2.96008,41.82763
Fixa,90,3.07359,41.85216
Camuflat,90,2.75701,41.75739
Camuflat,90,2.77361,42.13267
Camuflat,90,2.78554,42.12119
Camuflat,90,2.79642,42.20926
Camuflat,90,2.90619,42.14183
Camuflat,90,2.91521,42.16799
